…
## Retrieving data

We are now pretty sure that this cube object will help us find information about our research question. The next step is to get the data from the GENESIS API.

Based on the fact that we want a cube object, we now use the `gen_cube()` function. For other GENESIS object types, use the corresponding functions (e.g., `gen_table()` for tables).

Important note: It is not possible to get a whole GENESIS statistic object, but it is possible to collect the different related cube objects independently and then try to recombine them.


```r
gen_cube(search_results$Cubes$Code[1])
#> # A tibble: 2,508 × 20
#>    DINSG GES   KB10A5     SMONAT  VST045_WERT VST045_QUALITAET VST045_GESPERRT
#>  * <chr> <chr> <chr>      <chr>         <dbl> <chr>            <lgl>          
#>  1 DG    GESM  KB10-01104 04/2022        31.3 e                NA             
#>  2 DG    GESM  KB10-01203 04/2022        21.6 e                NA             
#>  3 DG    GESM  KB10-01302 04/2022        17.4 e                NA             
#>  4 DG    GESM  KB10-01402 04/2022        15.3 e                NA             
#>  5 DG    GESM  KB10-11101 04/2022        12.8 e                NA             
#>  6 DG    GESM  KB10-11102 04/2022        13.7 e                NA             
#>  7 DG    GESM  KB10-11103 04/2022        23.6 ()               NA             
#>  8 DG    GESM  KB10-11104 04/2022        30.8 e                NA             
#>  9 DG    GESM  KB10-11113 04/2022        21.4 ()               NA             
#> 10 DG    GESM  KB10-11114 04/2022         0   /                NA             
#> # ℹ 2,498 more rows
#> # ℹ 13 more variables: `VST045_WERT-VERFAELSCHT` <dbl>, VST047_WERT <dbl>,
#> #   VST047_QUALITAET <chr>, VST047_GESPERRT <lgl>, `VST047_WERT-VERFAELSCHT` <dbl>,
#> #   VST051_WERT <dbl>, VST051_QUALITAET <chr>, VST051_GESPERRT <lgl>,
#> #   `VST051_WERT-VERFAELSCHT` <dbl>, VST052_WERT <dbl>, VST052_QUALITAET <chr>,
#> #   VST052_GESPERRT <lgl>, `VST052_WERT-VERFAELSCHT` <dbl>
```
…
